Capstone
…
## See spec(...) for full column specifications.

## Warning: 669 failed to parse.

## Warning in eval(substitute(expr), envir, enclos): NAs introduced by
## coercion

## Warning in eval(substitute(expr), envir, enclos): NAs introduced by
## coercion

## # A tibble: 5,956 x 45
##      I_D FLAG_TSUNAMI   date  HOUR MINUTE SECOND FOCAL_DEPTH EQ_PRIMARY
##    <int>        <chr> <date> <int>  <int>  <chr>       <int>      <dbl>
##  1     1         <NA>     NA    NA     NA   <NA>          NA        7.3
##  2     3         <NA>     NA    NA     NA   <NA>          18        7.1
##  3     2          Tsu     NA    NA     NA   <NA>          NA         NA
##  4  5877          Tsu     NA    NA     NA   <NA>          NA         NA
##  5     8         <NA>     NA    NA     NA   <NA>          NA         NA
##  6    11         <NA>     NA    NA     NA   <NA>          NA         NA
##  7  9712          Tsu     NA    NA     NA   <NA>          NA         NA
##  8    12         <NA>     NA    NA     NA   <NA>          NA        6.5
##  9    13         <NA>     NA    NA     NA   <NA>          NA        6.2
## 10    14         <NA>     NA    NA     NA   <NA>          NA         NA
## # ... with 5,946 more rows, and 37 more variables: EQ_MAG_MW <dbl>,
## #   EQ_MAG_MS <dbl>, EQ_MAG_MB <chr>, EQ_MAG_ML <dbl>, EQ_MAG_MFA <chr>,
## #   EQ_MAG_UNK <dbl>, INTENSITY <int>, COUNTRY <chr>, STATE <chr>,
## #   LOCATION_NAME <chr>, LATITUDE <dbl>, LONGITUDE <dbl>,
## #   REGION_CODE <int>, DEATHS <int>, DEATHS_DESCRIPTION <int>,
## #   MISSING <chr>, MISSING_DESCRIPTION <int>, INJURIES <int>,
## #   INJURIES_DESCRIPTION <int>, DAMAGE_MILLIONS_DOLLARS <chr>,
## #   DAMAGE_DESCRIPTION <int>, HOUSES_DESTROYED <int>,
## #   HOUSES_DESTROYED_DESCRIPTION <int>, HOUSES_DAMAGED <int>,
…
## See spec(...) for full column specifications.

## Warning: 669 failed to parse.

## Warning in eval(substitute(expr), envir, enclos): NAs introduced by
## coercion

## Warning in eval(substitute(expr), envir, enclos): NAs introduced by
## coercion

## # A tibble: 5,956 x 45
##      I_D FLAG_TSUNAMI   date  HOUR MINUTE SECOND FOCAL_DEPTH EQ_PRIMARY
##    <int>        <chr> <date> <int>  <int>  <chr>       <int>      <dbl>
##  1     1         <NA>     NA    NA     NA   <NA>          NA        7.3
##  2     3         <NA>     NA    NA     NA   <NA>          18        7.1
##  3     2          Tsu     NA    NA     NA   <NA>          NA         NA
##  4  5877          Tsu     NA    NA     NA   <NA>          NA         NA
##  5     8         <NA>     NA    NA     NA   <NA>          NA         NA
##  6    11         <NA>     NA    NA     NA   <NA>          NA         NA
##  7  9712          Tsu     NA    NA     NA   <NA>          NA         NA
##  8    12         <NA>     NA    NA     NA   <NA>          NA        6.5
##  9    13         <NA>     NA    NA     NA   <NA>          NA        6.2
## 10    14         <NA>     NA    NA     NA   <NA>          NA         NA
## # ... with 5,946 more rows, and 37 more variables: EQ_MAG_MW <dbl>,
## #   EQ_MAG_MS <dbl>, EQ_MAG_MB <chr>, EQ_MAG_ML <dbl>, EQ_MAG_MFA <chr>,
## #   EQ_MAG_UNK <dbl>, INTENSITY <int>, COUNTRY <chr>, STATE <chr>,
## #   LOCATION_NAME <chr>, LATITUDE <dbl>, LONGITUDE <dbl>,
## #   REGION_CODE <int>, DEATHS <int>, DEATHS_DESCRIPTION <int>,
## #   MISSING <chr>, MISSING_DESCRIPTION <int>, INJURIES <int>,
## #   INJURIES_DESCRIPTION <int>, DAMAGE_MILLIONS_DOLLARS <chr>,
## #   DAMAGE_DESCRIPTION <int>, HOUSES_DESTROYED <int>,
## #   HOUSES_DESTROYED_DESCRIPTION <int>, HOUSES_DAMAGED <int>,
…
